<svg width="24" height="24" viewBox="0 0 24 24">
   <path d="M0 0h24v24H0z" fill="none" />
   <circle cx="12" cy="12" r="11" fill="none" stroke="currentColor" strokeWidth="1" />
   <circle cx="12" cy="12" r="8" fill="none" stroke="currentColor" strokeWidth="2" />
</svg>

